0 0
0.15 4.2
0.3 -8.95617
0.45 29.7246
0.6 29.7246
0.75 -73.7796
0.9 175.329
1.05 175.329
1.2 -364.884
1.35 700.41
1.5 -1233.02
1.65 -1233.02
1.8 2036.38
1.95 -3172.78
2.1 -3172.78
2.25 4724.12
2.4 -6759.84
2.55 9369.49
2.7 9369.49
2.85 -12631.8
3 16648
3.15 16648
3.3 -21511.3
3.45 27340.5
3.6 -34249.5
3.75 -34249.5
3.9 42381.2
4.05 -51877.1
4.2 -51877.1
4.35 62911.5
4.5 -75661.4
4.65 90340.7
4.8 90340.7
4.95 -107171
