
0.010000000000	 0.088667373579
0.020000000000	 0.058444248138
0.030000000000	 0.037147522463
0.040000000000	 0.028370817172
0.050000000000	 0.023307069855
0.060000000000	 0.019233889124
0.070000000000	 0.016083228613
0.080000000000	 0.013646664320
0.090000000000	 0.012066954921
0.100000000000	 0.010887218183
0.110000000000	 0.009856153245
0.120000000000	 0.008959164460
0.130000000000	 0.008178603791
0.140000000000	 0.007497510334
0.150000000000	 0.006900874911
0.160000000000	 0.006375888810
0.170000000000	 0.005958946486
0.180000000000	 0.005615913703
0.190000000000	 0.005300779862
0.200000000000	 0.005011218687
0.210000000000	 0.004744942461
0.220000000000	 0.004499787796
0.230000000000	 0.004273755140
0.240000000000	 0.004065021976
0.250000000000	 0.003871941448
0.260000000000	 0.003693033289
0.270000000000	 0.003526971083
0.280000000000	 0.003372568191
0.290000000000	 0.003243186134
0.300000000000	 0.003125643691
0.310000000000	 0.003014453981
0.320000000000	 0.002909217594
0.330000000000	 0.002809555030
0.340000000000	 0.002715108232
0.350000000000	 0.002625541089
0.360000000000	 0.002540539258
0.370000000000	 0.002459809540
0.380000000000	 0.002383078976
0.390000000000	 0.002310093786
0.400000000000	 0.002240618222
0.410000000000	 0.002174433401
0.420000000000	 0.002111336142
0.430000000000	 0.002051137846
0.440000000000	 0.001993663418
0.450000000000	 0.001942707975
0.460000000000	 0.001895288191
0.470000000000	 0.001849645102
0.480000000000	 0.001805696755
0.490000000000	 0.001763364921
0.500000000000	 0.001722575045
0.510000000000	 0.001683256165
0.520000000000	 0.001645340807
0.530000000000	 0.001608764864
0.540000000000	 0.001573467464
0.550000000000	 0.001539390831
0.560000000000	 0.001506480147
0.570000000000	 0.001474683406
0.580000000000	 0.001443951281
0.590000000000	 0.001414236981
0.600000000000	 0.001385496122
0.610000000000	 0.001357686600
0.620000000000	 0.001330768464
0.630000000000	 0.001304703802
0.640000000000	 0.001279456628
0.650000000000	 0.001254992777
0.660000000000	 0.001232991615
0.670000000000	 0.001211762148
0.680000000000	 0.001191104674
0.690000000000	 0.001170999547
0.700000000000	 0.001151427851
0.710000000000	 0.001132371382
0.720000000000	 0.001113812628
0.730000000000	 0.001095734741
0.740000000000	 0.001078121523
0.750000000000	 0.001060957396
0.760000000000	 0.001044227380
0.770000000000	 0.001027917076
0.780000000000	 0.001012012639
0.790000000000	 0.000996500756
0.800000000000	 0.000981368629
0.810000000000	 0.000966603953
0.820000000000	 0.000952194892
0.830000000000	 0.000938130067
0.840000000000	 0.000924398530
0.850000000000	 0.000910989754
0.860000000000	 0.000897893606
0.870000000000	 0.000885100341
0.880000000000	 0.000872600579
0.890000000000	 0.000860385289
0.900000000000	 0.000848445781
0.910000000000	 0.000836773686
0.920000000000	 0.000825962248
0.930000000000	 0.000815502491
0.940000000000	 0.000805252621
0.950000000000	 0.000795207154
0.960000000000	 0.000785360769
0.970000000000	 0.000775708304
0.980000000000	 0.000766244752
0.990000000000	 0.000756965254
1.000000000000	 0.000747865097
1.010000000000	 0.000738939709
1.020000000000	 0.000730184656
1.030000000000	 0.000721595634
1.040000000000	 0.000713168470
1.050000000000	 0.000704899112
1.060000000000	 0.000696783633
1.070000000000	 0.000688818218
1.080000000000	 0.000680999169
1.090000000000	 0.000673322893
1.100000000000	 0.000665785907
1.110000000000	 0.000658384828
1.120000000000	 0.000651116373
1.130000000000	 0.000643977354
1.140000000000	 0.000636964676
1.150000000000	 0.000630075335
1.160000000000	 0.000623306413
1.170000000000	 0.000616655075
1.180000000000	 0.000610118568
1.190000000000	 0.000603694220
1.200000000000	 0.000597379432
1.210000000000	 0.000591171680
1.220000000000	 0.000585068511
1.230000000000	 0.000579067541
1.240000000000	 0.000573456818
1.250000000000	 0.000567955845
1.260000000000	 0.000562539259
1.270000000000	 0.000557205349
1.280000000000	 0.000551952445
1.290000000000	 0.000546778917
1.300000000000	 0.000541683172
1.310000000000	 0.000536663657
1.320000000000	 0.000531718855
1.330000000000	 0.000526847285
1.340000000000	 0.000522047500
1.350000000000	 0.000517318088
1.360000000000	 0.000512657672
1.370000000000	 0.000508064905
1.380000000000	 0.000503538472
1.390000000000	 0.000499077090
1.400000000000	 0.000494679504
1.410000000000	 0.000490344491
1.420000000000	 0.000486070854
1.430000000000	 0.000481857424
1.440000000000	 0.000477703061
1.450000000000	 0.000473606649
1.460000000000	 0.000469567099
1.470000000000	 0.000465583347
1.480000000000	 0.000461654352
1.490000000000	 0.000457779098
1.500000000000	 0.000453956592
1.510000000000	 0.000450185863
1.520000000000	 0.000446465961
1.530000000000	 0.000442795961
1.540000000000	 0.000439174954
1.550000000000	 0.000435602055
1.560000000000	 0.000432076397
1.570000000000	 0.000428597132
1.580000000000	 0.000425163431
1.590000000000	 0.000421774485
1.600000000000	 0.000418429500
1.610000000000	 0.000415127701
1.620000000000	 0.000411971502
1.630000000000	 0.000408895923
1.640000000000	 0.000405857307
1.650000000000	 0.000402855061
1.660000000000	 0.000399888602
1.670000000000	 0.000396957361
1.680000000000	 0.000394060777
1.690000000000	 0.000391198301
1.700000000000	 0.000388369395
1.710000000000	 0.000385573530
1.720000000000	 0.000382810189
1.730000000000	 0.000380078862
1.740000000000	 0.000377379052
1.750000000000	 0.000374710268
1.760000000000	 0.000372072031
1.770000000000	 0.000369463869
1.780000000000	 0.000366885321
1.790000000000	 0.000364335933
1.800000000000	 0.000361815259
1.810000000000	 0.000359322864
1.820000000000	 0.000356858318
1.830000000000	 0.000354421200
1.840000000000	 0.000352011098
1.850000000000	 0.000349627607
1.860000000000	 0.000347270328
1.870000000000	 0.000344938872
1.880000000000	 0.000342632854
1.890000000000	 0.000340351899
1.900000000000	 0.000338095637
1.910000000000	 0.000335863705
1.920000000000	 0.000333655746
1.930000000000	 0.000331471412
1.940000000000	 0.000329310359
1.950000000000	 0.000327172249
1.960000000000	 0.000325056751
1.970000000000	 0.000322963540
1.980000000000	 0.000320892296
1.990000000000	 0.000318842705