0.0000 	 0.000000000000000 	 0.000000000000000 	 0.000000000000000 
0.1000 	 0.172642716950101 	 0.172642716950101 	 0.171837006808515 
0.2000 	 0.315541936393198 	 0.315541936393198 	 0.314113938534899 
0.3000 	 0.434702099610482 	 0.434702099610482 	 0.432834094448909 
0.4000 	 0.534476087301453 	 0.534476087301453 	 0.532342252843874 
0.5000 	 0.618140536868214 	 0.618140536868214 	 0.615899918646281 
0.6000 	 0.688250234066060 	 0.688250234066061 	 0.686040653524686 
0.7000 	 0.746861668803566 	 0.746861668803567 	 0.744795255431507 
0.8000 	 0.795676292507485 	 0.795676292507486 	 0.793837016931835 
0.9000 	 0.836133195979928 	 0.836133195979929 	 0.834576494487446 
1.0000 	 0.869469427612630 	 0.869469427612631 	 0.868223761358514 
1.1000 	 0.896759518913028 	 0.896759518913028 	 0.895829521650766 
1.2000 	 0.918941753988064 	 0.918941753988064 	 0.918312502327728 
1.3000 	 0.936836165585615 	 0.936836165585616 	 0.936478058276773 
1.4000 	 0.951157553842840 	 0.951157553842841 	 0.951031304959734 
1.5000 	 0.962525673436041 	 0.962525673436042 	 0.962586994924363 
1.6000 	 0.971473934607830 	 0.971473934607830 	 0.971677588415268 
1.7000 	 0.978457405374511 	 0.978457405374511 	 0.978760425221716 
1.8000 	 0.983860519246113 	 0.983860519246114 	 0.984224519675556 
1.9000 	 0.988004640259632 	 0.988004640259632 	 0.988397232456979 
2.0000 	 0.991155482303147 	 0.991155482303147 	 0.991550893774177 
2.1000 	 0.993530296900911 	 0.993530296900911 	 0.993909341885129 
2.2000 	 0.995304711884042 	 0.995304711884042 	 0.995654282220204 
2.3000 	 0.996619105528340 	 0.996619105528340 	 0.996931351570205 
2.4000 	 0.997584423062390 	 0.997584423062390 	 0.997855777031901 
2.5000 	 0.998287374406381 	 0.998287374406381 	 0.998517540699338 
2.6000 	 0.998794986020739 	 0.998794986020739 	 0.998985990443211 
2.7000 	 0.999158510849378 	 0.999158510849378 	 0.999313868449149 
2.8000 	 0.999416725715593 	 0.999416725715594 	 0.999540758236966 
2.9000 	 0.999598664014880 	 0.999598664014880 	 0.999695975042199 
3.0000 	 0.999725843175917 	 0.999725843175918 	 0.999800942460602 
3.1000 	 0.999814051904369 	 0.999814051904369 	 0.999871109939532 
3.2000 	 0.999874762850806 	 0.999874762850807 	 0.999917471583063 
3.3000 	 0.999916233342438 	 0.999916233342438 	 0.999947747793795 
3.4000 	 0.999944351414909 	 0.999944351414909 	 0.999967288668978 
3.5000 	 0.999963277631451 	 0.999963277631451 	 0.999979752973088 
3.6000 	 0.999975925918764 	 0.999975925918765 	 0.999987609974732 
3.7000 	 0.999984319492583 	 0.999984319492583 	 0.999992504324800 
3.8000 	 0.999989851295328 	 0.999989851295328 	 0.999995517111588 
3.9000 	 0.999993472456803 	 0.999993472456803 	 0.999997349695400 
4.0000 	 0.999995827217730 	 0.999995827217730 	 0.999998451156714 
4.1000 	 0.999997348532561 	 0.999997348532561 	 0.999999105300722 
4.2000 	 0.999998325139050 	 0.999998325139051 	 0.999999489154457 
4.3000 	 0.999998948159653 	 0.999998948159653 	 0.999999711709146 
4.4000 	 0.999999343181131 	 0.999999343181131 	 0.999999839199480 
4.5000 	 0.999999592139539 	 0.999999592139539 	 0.999999911356546 
4.6000 	 0.999999748120656 	 0.999999748120656 	 0.999999951705629 
4.7000 	 0.999999845284966 	 0.999999845284966 	 0.999999973996872 
4.8000 	 0.999999905468879 	 0.999999905468879 	 0.999999986163601 
4.9000 	 0.999999942540483 	 0.999999942540483 	 0.999999992724234 
5.0000 	 0.999999965251523 	 0.999999965251523 	 0.999999996219209 
5.1000 	 0.999999979090810 	 0.999999979090810 	 0.999999998058552 
5.2000 	 0.999999987479938 	 0.999999987479938 	 0.999999999014857 
5.3000 	 0.999999992539242 	 0.999999992539242 	 0.999999999506037 
5.4000 	 0.999999995575081 	 0.999999995575081 	 0.999999999755261 
5.5000 	 0.999999997387770 	 0.999999997387770 	 0.999999999880183 
5.6000 	 0.999999998464895 	 0.999999998464895 	 0.999999999942039 
5.7000 	 0.999999999101905 	 0.999999999101906 	 0.999999999972296 
5.8000 	 0.999999999476883 	 0.999999999476883 	 0.999999999986916 
5.9000 	 0.999999999696609 	 0.999999999696609 	 0.999999999993895 
6.0000 	 0.999999999824786 	 0.999999999824786 	 0.999999999997185 
6.1000 	 0.999999999899230 	 0.999999999899230 	 0.999999999998718 
6.2000 	 0.999999999942281 	 0.999999999942281 	 0.999999999999423 
6.3000 	 0.999999999967071 	 0.999999999967071 	 0.999999999999743 
6.4000 	 0.999999999981288 	 0.999999999981288 	 0.999999999999887 
6.5000 	 0.999999999989407 	 0.999999999989407 	 0.999999999999951 
6.6000 	 0.999999999994026 	 0.999999999994026 	 0.999999999999979 
6.7000 	 0.999999999996643 	 0.999999999996643 	 0.999999999999991 
6.8000 	 0.999999999998120 	 0.999999999998120 	 0.999999999999996 
6.9000 	 0.999999999998951 	 0.999999999998950 	 0.999999999999998 
7.0000 	 0.999999999999416 	 0.999999999999416 	 0.999999999999999 
7.1000 	 0.999999999999676 	 0.999999999999675 	 1.000000000000000 
7.2000 	 0.999999999999820 	 0.999999999999820 	 1.000000000000000 
7.3000 	 0.999999999999900 	 0.999999999999900 	 1.000000000000000 
7.4000 	 0.999999999999945 	 0.999999999999944 	 1.000000000000000 
7.5000 	 0.999999999999969 	 0.999999999999969 	 1.000000000000000 
7.6000 	 0.999999999999983 	 0.999999999999983 	 1.000000000000000 
7.7000 	 0.999999999999990 	 0.999999999999990 	 1.000000000000000 
7.8000 	 0.999999999999994 	 0.999999999999994 	 1.000000000000000 
7.9000 	 0.999999999999996 	 0.999999999999996 	 1.000000000000000 
8.0000 	 0.999999999999997 	 0.999999999999997 	 1.000000000000000 
8.1000 	 0.999999999999998 	 0.999999999999998 	 1.000000000000000 
8.2000 	 0.999999999999999 	 0.999999999999999 	 1.000000000000000 
8.3000 	 0.999999999999999 	 0.999999999999999 	 1.000000000000000 
8.4000 	 0.999999999999999 	 0.999999999999999 	 1.000000000000000 
8.5000 	 1.000000000000000 	 1.000000000000000 	 1.000000000000000 
8.6000 	 1.000000000000000 	 1.000000000000000 	 1.000000000000000 
8.7000 	 1.000000000000000 	 1.000000000000000 	 1.000000000000000 
8.8000 	 1.000000000000000 	 1.000000000000000 	 1.000000000000000 
8.9000 	 1.000000000000000 	 1.000000000000000 	 1.000000000000000 
9.0000 	 1.000000000000000 	 1.000000000000000 	 1.000000000000000 
9.1000 	 1.000000000000000 	 1.000000000000000 	 1.000000000000000 
9.2000 	 1.000000000000000 	 1.000000000000000 	 1.000000000000000 
9.3000 	 1.000000000000000 	 1.000000000000000 	 1.000000000000000 
9.4000 	 1.000000000000000 	 1.000000000000000 	 1.000000000000000 
9.5000 	 1.000000000000000 	 1.000000000000000 	 1.000000000000000 
9.6000 	 1.000000000000000 	 1.000000000000000 	 1.000000000000000 
9.7000 	 1.000000000000000 	 1.000000000000000 	 1.000000000000000 
9.8000 	 1.000000000000000 	 1.000000000000000 	 1.000000000000000 
9.9000 	 1.000000000000000 	 1.000000000000000 	 1.000000000000000 
