-1 -0.047619 -0.0465826 -0.047619
-0.99 -0.048981 -0.0495364 -0.117551
-0.98 -0.0503924 -0.051464 -0.159989
-0.97 -0.0518554 -0.0528024 -0.181959
-0.96 -0.0533721 -0.0538691 -0.189137
-0.95 -0.0549447 -0.0548858 -0.186052
-0.94 -0.0565755 -0.0559988 -0.17627
-0.93 -0.0582669 -0.0572962 -0.162549
-0.92 -0.0600214 -0.058822 -0.146979
-0.91 -0.0618417 -0.0605882 -0.131102
-0.9 -0.0637303 -0.0625843 -0.11601
-0.89 -0.0656902 -0.0647855 -0.102438
-0.88 -0.067724 -0.067159 -0.0908365
-0.87 -0.0698349 -0.0696687 -0.0814351
-0.86 -0.0720258 -0.0722788 -0.0742968
-0.85 -0.0742999 -0.074957 -0.0693613
-0.84 -0.0766603 -0.0776758 -0.066482
-0.83 -0.0791104 -0.0804142 -0.0654557
-0.82 -0.0816535 -0.0831577 -0.0660463
-0.81 -0.084293 -0.0858988 -0.0680035
-0.8 -0.0870322 -0.0886367 -0.0710777
-0.79 -0.0898747 -0.0913768 -0.0750299
-0.78 -0.0928239 -0.0941296 -0.0796405
-0.77 -0.0958831 -0.0969104 -0.0847133
-0.76 -0.0990559 -0.0997379 -0.0900792
-0.75 -0.102345 -0.102634 -0.0955972
-0.74 -0.105755 -0.10562 -0.101155
-0.73 -0.109287 -0.108721 -0.106665
-0.72 -0.112945 -0.111958 -0.112069
-0.71 -0.116731 -0.115355 -0.117327
-0.7 -0.120648 -0.118931 -0.122421
-0.69 -0.124697 -0.122702 -0.127349
-0.68 -0.128879 -0.126683 -0.132124
-0.67 -0.133195 -0.130885 -0.136767
-0.66 -0.137645 -0.135312 -0.141309
-0.65 -0.142228 -0.139967 -0.145784
-0.64 -0.146943 -0.144847 -0.150229
-0.63 -0.151786 -0.149945 -0.154681
-0.62 -0.156753 -0.155249 -0.159175
-0.61 -0.161839 -0.160744 -0.163741
-0.6 -0.167038 -0.16641 -0.168405
-0.59 -0.17234 -0.172222 -0.173188
-0.58 -0.177734 -0.178154 -0.178102
-0.57 -0.183209 -0.184174 -0.183152
-0.56 -0.188749 -0.190249 -0.188337
-0.55 -0.194338 -0.196344 -0.193647
-0.54 -0.199955 -0.202421 -0.199064
-0.53 -0.205578 -0.208442 -0.204565
-0.52 -0.211183 -0.214365 -0.210119
-0.51 -0.216741 -0.220152 -0.215691
-0.5 -0.222222 -0.225761 -0.221238
-0.49 -0.227594 -0.231154 -0.226717
-0.48 -0.232819 -0.236291 -0.23208
-0.47 -0.237862 -0.241134 -0.237276
-0.46 -0.242681 -0.245648 -0.242253
-0.45 -0.247236 -0.249799 -0.246961
-0.44 -0.251483 -0.253555 -0.251348
-0.43 -0.255381 -0.256887 -0.255366
-0.42 -0.258885 -0.259768 -0.258966
-0.41 -0.261955 -0.262176 -0.262106
-0.4 -0.26455 -0.264091 -0.264744
-0.39 -0.266632 -0.265494 -0.266845
-0.38 -0.268167 -0.266372 -0.268378
-0.37 -0.269124 -0.266715 -0.269316
-0.36 -0.269477 -0.266515 -0.269638
-0.35 -0.269205 -0.265769 -0.26933
-0.34 -0.268294 -0.264474 -0.268381
-0.33 -0.266735 -0.262634 -0.266786
-0.32 -0.264525 -0.260253 -0.264548
-0.31 -0.261669 -0.257338 -0.261672
-0.3 -0.258176 -0.2539 -0.25817
-0.29 -0.254061 -0.249951 -0.254057
-0.28 -0.249347 -0.245504 -0.249355
-0.27 -0.244059 -0.240578 -0.244087
-0.26 -0.238227 -0.235188 -0.238281
-0.25 -0.231884 -0.229356 -0.231967
-0.24 -0.225066 -0.2231 -0.225178
-0.23 -0.21781 -0.216442 -0.217947
-0.22 -0.210154 -0.209404 -0.210311
-0.21 -0.202138 -0.202009 -0.202307
-0.2 -0.193798 -0.194279 -0.193969
-0.19 -0.185174 -0.186236 -0.185336
-0.18 -0.176299 -0.177904 -0.176442
-0.17 -0.167207 -0.169303 -0.167322
-0.16 -0.15793 -0.160457 -0.158007
-0.15 -0.148496 -0.151385 -0.14853
-0.14 -0.138933 -0.142109 -0.138919
-0.13 -0.129262 -0.132647 -0.129199
-0.12 -0.119504 -0.123019 -0.119394
-0.11 -0.109679 -0.113242 -0.109525
-0.1 -0.0998004 -0.103332 -0.0996098
-0.09 -0.0898821 -0.0933054 -0.0896635
-0.08 -0.0799345 -0.0831774 -0.0796986
-0.07 -0.0699664 -0.0729615 -0.0697245
-0.06 -0.0599845 -0.0626709 -0.0597486
-0.05 -0.0499938 -0.0523177 -0.0497757
-0.04 -0.039998 -0.0419136 -0.0398087
-0.03 -0.0299995 -0.0314695 -0.0298485
-0.02 -0.0199999 -0.0209959 -0.0198948
-0.01 -0.01 -0.0105028 -0.00994607
7.5287e-016 7.5287e-016 8.04912e-016 8.39606e-016
0.01 0.01 0.0105028 0.00994607
0.02 0.0199999 0.0209959 0.0198948
0.03 0.0299995 0.0314695 0.0298485
0.04 0.039998 0.0419136 0.0398087
0.05 0.0499938 0.0523177 0.0497757
0.06 0.0599845 0.0626709 0.0597486
0.07 0.0699664 0.0729615 0.0697245
0.08 0.0799345 0.0831774 0.0796986
0.09 0.0898821 0.0933054 0.0896635
0.1 0.0998004 0.103332 0.0996098
0.11 0.109679 0.113242 0.109525
0.12 0.119504 0.123019 0.119394
0.13 0.129262 0.132647 0.129199
0.14 0.138933 0.142109 0.138919
0.15 0.148496 0.151385 0.14853
0.16 0.15793 0.160457 0.158007
0.17 0.167207 0.169303 0.167322
0.18 0.176299 0.177904 0.176442
0.19 0.185174 0.186236 0.185336
0.2 0.193798 0.194279 0.193969
0.21 0.202138 0.202009 0.202307
0.22 0.210154 0.209404 0.210311
0.23 0.21781 0.216442 0.217947
0.24 0.225066 0.2231 0.225178
0.25 0.231884 0.229356 0.231967
0.26 0.238227 0.235188 0.238281
0.27 0.244059 0.240578 0.244087
0.28 0.249347 0.245504 0.249355
0.29 0.254061 0.249951 0.254057
0.3 0.258176 0.2539 0.25817
0.31 0.261669 0.257338 0.261672
0.32 0.264525 0.260253 0.264548
0.33 0.266735 0.262634 0.266786
0.34 0.268294 0.264474 0.268381
0.35 0.269205 0.265769 0.26933
0.36 0.269477 0.266515 0.269638
0.37 0.269124 0.266715 0.269316
0.38 0.268167 0.266372 0.268378
0.39 0.266632 0.265494 0.266845
0.4 0.26455 0.264091 0.264744
0.41 0.261955 0.262176 0.262106
0.42 0.258885 0.259768 0.258966
0.43 0.255381 0.256887 0.255366
0.44 0.251483 0.253555 0.251348
0.45 0.247236 0.249799 0.246961
0.46 0.242681 0.245648 0.242253
0.47 0.237862 0.241134 0.237276
0.48 0.232819 0.236291 0.23208
0.49 0.227594 0.231154 0.226717
0.5 0.222222 0.225761 0.221238
0.51 0.216741 0.220152 0.215691
0.52 0.211183 0.214365 0.210119
0.53 0.205578 0.208442 0.204565
0.54 0.199955 0.202421 0.199064
0.55 0.194338 0.196344 0.193647
0.56 0.188749 0.190249 0.188337
0.57 0.183209 0.184174 0.183152
0.58 0.177734 0.178154 0.178102
0.59 0.17234 0.172222 0.173188
0.6 0.167038 0.16641 0.168405
0.61 0.161839 0.160744 0.163741
0.62 0.156753 0.155249 0.159175
0.63 0.151786 0.149945 0.154681
0.64 0.146943 0.144847 0.150229
0.65 0.142228 0.139967 0.145784
0.66 0.137645 0.135312 0.141309
0.67 0.133195 0.130885 0.136767
0.68 0.128879 0.126683 0.132124
0.69 0.124697 0.122702 0.127349
0.7 0.120648 0.118931 0.122421
0.71 0.116731 0.115355 0.117327
0.72 0.112945 0.111958 0.112069
0.73 0.109287 0.108721 0.106665
0.74 0.105755 0.10562 0.101155
0.75 0.102345 0.102634 0.0955972
0.76 0.0990559 0.0997379 0.0900792
0.77 0.0958831 0.0969104 0.0847133
0.78 0.0928239 0.0941296 0.0796405
0.79 0.0898747 0.0913768 0.0750299
0.8 0.0870322 0.0886367 0.0710777
0.81 0.084293 0.0858988 0.0680035
0.82 0.0816535 0.0831577 0.0660463
0.83 0.0791104 0.0804142 0.0654557
0.84 0.0766603 0.0776758 0.066482
0.85 0.0742999 0.074957 0.0693613
0.86 0.0720258 0.0722788 0.0742968
0.87 0.0698349 0.0696687 0.0814351
0.88 0.067724 0.067159 0.0908365
0.89 0.0656902 0.0647855 0.102438
0.9 0.0637303 0.0625843 0.11601
0.91 0.0618417 0.0605882 0.131102
0.92 0.0600214 0.058822 0.146979
0.93 0.0582669 0.0572962 0.162549
0.94 0.0565755 0.0559988 0.17627
0.95 0.0549447 0.0548858 0.186052
0.96 0.0533721 0.0538691 0.189137
0.97 0.0518554 0.0528024 0.181959
0.98 0.0503924 0.051464 0.159989
0.99 0.048981 0.0495364 0.117551
