0 -0 0 
0.0413367 0.0476273 0.0476128 
0.0826735 0.0948584 0.0948298 
0.12401 0.1413 0.141257 
0.165347 0.186562 0.186507 
0.206684 0.230264 0.230198 
0.24802 0.272034 0.271958 
0.289357 0.311512 0.311427 
0.330694 0.348352 0.348261 
0.372031 0.382225 0.382129 
0.413367 0.412818 0.412721 
0.454704 0.43984 0.439743 
0.496041 0.463021 0.462927 
0.537378 0.482112 0.482024 
0.578714 0.49689 0.49681 
0.620051 0.507155 0.507086 
0.661388 0.512734 0.512679 
0.702725 0.513478 0.513439 
0.744061 0.509266 0.509245 
0.785398 0.5 0.5 
